%YAML 1.1
%TAG !u! tag:unity3d.com,2011:
--- !u!114 &11400000
MonoBehaviour:
  m_ObjectHideFlags: 0
  m_CorrespondingSourceObject: {fileID: 0}
  m_PrefabInstance: {fileID: 0}
  m_PrefabAsset: {fileID: 0}
  m_GameObject: {fileID: 0}
  m_Enabled: 1
  m_EditorHideFlags: 0
  m_Script: {fileID: 11500000, guid: a29f67b488b4458983fd973bbda8c8fa, type: 3}
  m_Name: PackageManifestConfig
  m_EditorClassIdentifier: 
  homepage: https://gitlab.com/pd-packages/byte-formatter
  sourcePath: Assets/Package/ByteFormatter
  documentationPath: Documentation~
  readmePath: README.md
  changelogPath: CHANGELOG.md
  licensePath: LICENSE
  license: MIT
  packageIgnorePaths: []
  packageDestinationPath: Release
  legacyPackageDestinationPath: 
  packageName: com.playdarium.unity.byte-formatter
  displayName: Byte Formatter
  packageVersion: 3.0.0
  unityVersion: 2019.4
  description: This framework helps serialize objects to binary format.
  category: unity
  author:
    name: Playdarium
    email: playdarium@gmail.com
    url: https://playdarium.com
  keywords:
  - unity
  - serialization
  - binary
  - persistence
  - bytes
  dependencies: []
  samples: []
  versionConstantsPath: 
  versionConstantsNamespace: 
  _id: 2ff09b4f-ccd2-4424-ab7c-266bf002891d
